<?xml version="1.0" encoding="UTF-8"?>
<svg width="78px" height="65px" viewBox="0 0 78 65" version="1.1" xmlns="http://www.w3.org/2000/svg" xmlns:xlink="http://www.w3.org/1999/xlink">
    <title>logo</title>
    <g id="Page-1" stroke="none" stroke-width="1" fill="none" fill-rule="evenodd">
        <g id="logo" transform="translate(-1.000000, 0.000000)" fill-rule="nonzero">
            <g id="layers" transform="translate(20.600000, 0.000000)" fill="#0054D5">
                <polygon id="Path" points="38.6737984 10.9715918 19.3535964 22.0099724 0.0333944409 10.9715918 19.3535964 -2.14868096e-15"></polygon>
                <polygon id="Path" opacity="0.5" points="19.3535964 22.0148104 7.36195629 15.1636373 0.0333944409 19.32504 19.3535964 30.3634206 38.6737984 19.32504 31.3452366 15.1636373"></polygon>
                <polygon id="Path" opacity="0.200000003" points="19.3535964 30.3682586 7.36195629 23.5170855 0.0333944409 27.6784882 19.3535964 38.7168688 38.6737984 27.6784882 31.3452366 23.5170855"></polygon>
            </g>
            <path d="M12.1219997,64.4799992 L12.1219997,61.7367992 L5.25319988,61.7367992 L5.25319988,49.1007995 L1.88359994,49.1007995 L1.88359994,64.4799992 L12.1219997,64.4799992 Z M19.3363996,64.6527992 C20.1139996,64.6527992 20.8843996,64.5339992 21.6475996,64.2963992 C22.4107995,64.0587992 23.0587995,63.7311992 23.5915995,63.3135992 L23.5915995,63.3135992 L22.7275995,61.1103992 C22.2523995,61.4559992 21.7339995,61.7223992 21.1723996,61.9095992 C20.6107996,62.0967992 20.0419996,62.1903992 19.4659996,62.1903992 C18.4723996,62.1903992 17.7343996,61.9167992 17.2519996,61.3695992 C16.8809227,60.9486761 16.6525677,60.3275164 16.5669346,59.50612 L16.5469992,59.2749992 L23.7859995,59.2743993 L23.7859995,58.7991993 C23.7859995,57.6615993 23.5843995,56.6787993 23.1811995,55.8507993 C22.7779995,55.0227993 22.2019995,54.3819994 21.4531996,53.9283994 C20.7043996,53.4747994 19.8187996,53.2479994 18.7963996,53.2479994 C17.7307996,53.2479994 16.7983996,53.4891994 15.9991997,53.9715994 C15.1999997,54.4539994 14.5699997,55.1271993 14.1091997,55.9911993 C13.6483997,56.8551993 13.4179997,57.8487993 13.4179997,58.9719993 C13.4179997,60.1383992 13.6555997,61.1463992 14.1307997,61.9959992 C14.6059997,62.8455992 15.2863997,63.5007992 16.1719997,63.9615992 C17.0575996,64.4223992 18.1123996,64.6527992 19.3363996,64.6527992 Z M20.9709992,57.6549992 L16.6139992,57.6549992 L16.6555897,57.4529481 C16.7403831,57.08432 16.8675732,56.7670142 17.03716,56.5010307 L17.1439996,56.3475993 C17.5543996,55.8075993 18.1339996,55.5375993 18.8827996,55.5375993 C19.5739996,55.5375993 20.1031996,55.7715993 20.4703996,56.2395993 C20.7374541,56.5799629 20.9035896,57.0402869 20.9688062,57.6205712 L20.9709992,57.6549992 Z M28.1707994,53.5287994 L24.3259995,53.5287994 L28.6891994,58.8423993 L24.0451995,64.4799992 L27.8899994,64.4799992 L30.5249992,61.1329992 L33.1819993,64.4799992 L37.0267992,64.4799992 L32.4043993,58.8423993 L36.7675992,53.5287994 L32.8795993,53.5287994 L30.5251994,56.5743993 L28.1707994,53.5287994 Z M41.2603992,51.4551994 L41.2603992,48.3879995 L37.7395992,48.3879995 L37.7395992,51.4551994 L41.2603992,51.4551994 Z M41.1307992,64.4799992 L41.1307992,53.5287994 L37.8691992,53.5287994 L37.8691992,64.4799992 L41.1307992,64.4799992 Z M48.971599,64.6527992 C49.806799,64.6527992 50.605999,64.5339992 51.369199,64.2963992 C52.1323989,64.0587992 52.7515989,63.7311992 53.2267989,63.3135992 L53.2267989,63.3135992 L52.3627989,61.0455992 C51.9307989,61.4055992 51.455599,61.6791992 50.937199,61.8663992 C50.418799,62.0535992 49.914799,62.1471992 49.425199,62.1471992 C48.532399,62.1471992 47.837599,61.8807992 47.340799,61.3479992 C46.843999,60.8151992 46.5955991,60.0159992 46.5955991,58.9503993 C46.5955991,57.8991993 46.847599,57.1071993 47.351599,56.5743993 C47.855599,56.0415993 48.546799,55.7751993 49.425199,55.7751993 C49.914799,55.7751993 50.418799,55.8723993 50.937199,56.0667993 C51.455599,56.2611993 51.9307989,56.5311993 52.3627989,56.8767993 L52.3627989,56.8767993 L53.2267989,54.6087994 C52.7659989,54.1911994 52.1611989,53.8599994 51.412399,53.6151994 C50.663599,53.3703994 49.900399,53.2479994 49.122799,53.2479994 C47.941999,53.2479994 46.912399,53.4891994 46.0339991,53.9715994 C45.1555991,54.4539994 44.4715991,55.1271993 43.9819991,55.9911993 C43.4923991,56.8551993 43.2475991,57.8631993 43.2475991,59.0151993 C43.2475991,60.1671992 43.4743991,61.1643992 43.9279991,62.0067992 C44.3815991,62.8491992 45.0403991,63.5007992 45.9043991,63.9615992 C46.7683991,64.4223992 47.790799,64.6527992 48.971599,64.6527992 Z M60.0091988,64.6527992 C61.1611988,64.6527992 62.1691987,64.4223992 63.0331987,63.9615992 C63.8971987,63.5007992 64.5631987,62.8419992 65.0311987,61.9851992 C65.4991987,61.1283992 65.7331987,60.1167992 65.7331987,58.9503993 C65.7331987,57.7839993 65.4991987,56.7759993 65.0311987,55.9263993 C64.5631987,55.0767993 63.8971987,54.4179994 63.0331987,53.9499994 C62.1691987,53.4819994 61.1611988,53.2479994 60.0091988,53.2479994 C58.8283988,53.2479994 57.8059988,53.4819994 56.9419988,53.9499994 C56.0779989,54.4179994 55.4119989,55.0767993 54.9439989,55.9263993 C54.4759989,56.7759993 54.2419989,57.7839993 54.2419989,58.9503993 C54.2419989,60.1167992 54.4759989,61.1283992 54.9439989,61.9851992 C55.4119989,62.8419992 56.0779989,63.5007992 56.9419988,63.9615992 C57.8059988,64.4223992 58.8283988,64.6527992 60.0091988,64.6527992 Z M60.0091988,62.1687992 C59.1883988,62.1687992 58.5619988,61.9059992 58.1299988,61.3803992 C57.6979988,60.8547992 57.4819988,60.0447992 57.4819988,58.9503993 C57.4819988,57.8703993 57.7015988,57.0675993 58.1407988,56.5419993 C58.5799988,56.0163993 59.2027988,55.7535993 60.0091988,55.7535993 C60.8011988,55.7535993 61.4131988,56.0163993 61.8451988,56.5419993 C62.2771987,57.0675993 62.4931987,57.8703993 62.4931987,58.9503993 C62.4931987,60.0447992 62.2771987,60.8547992 61.8451988,61.3803992 C61.4131988,61.9059992 60.8011988,62.1687992 60.0091988,62.1687992 Z M71.0899986,64.4799992 L71.0899986,58.3455993 C71.0899986,57.5679993 71.3059986,56.9487993 71.7379986,56.4879993 C72.1699985,56.0271993 72.7459985,55.7967993 73.4659985,55.7967993 C74.0707985,55.7967993 74.5135985,55.9695993 74.7943985,56.3151993 C75.0751985,56.6607993 75.2155985,57.2223993 75.2155985,57.9999993 L75.2155985,57.9999993 L75.2155985,64.4799992 L78.4771984,64.4799992 L78.4771984,57.8487993 C78.4771984,54.7815993 77.1883984,53.2479994 74.6107985,53.2479994 C73.7323985,53.2479994 72.9583985,53.4531994 72.2887985,53.8635994 C71.7679986,54.1827994 71.3364875,54.613066 70.9942652,55.1543993 L70.9169992,55.2849992 L70.7227986,53.5287994 L67.6555986,53.5287994 C67.7275986,54.0471994 67.7743986,54.5691994 67.7959986,55.0947993 C67.8175986,55.6203993 67.8283986,56.1423993 67.8283986,56.6607993 L67.8283986,56.6607993 L67.8283986,64.4799992 L71.0899986,64.4799992 Z" id="Lexicon" fill="#343333"></path>
        </g>
    </g>
</svg>