<?xml version="1.0" encoding="UTF-8"?>
<svg width="24px" height="14px" viewBox="0 0 24 14" version="1.1" xmlns="http://www.w3.org/2000/svg" xmlns:xlink="http://www.w3.org/1999/xlink">
    <!-- Generator: Sketch 63.1 (92452) - https://sketch.com -->
    <title>arrow-left-long</title>
    <desc>Created with Sketch.</desc>
    <g id="Page-1" stroke="none" stroke-width="1" fill="none" fill-rule="evenodd">
        <g id="10" transform="translate(-226.000000, -122.000000)" stroke="#424242" stroke-width="2">
            <g id="arrow-left-long" transform="translate(228.000000, 123.000000)">
                <line x1="21.6666667" y1="5.83333333" x2="0" y2="5.83333333" id="Path"></line>
                <polyline id="Path" points="5.83333333 11.6666667 0 5.83333333 5.83333333 0"></polyline>
            </g>
        </g>
    </g>
</svg>